<svg width="15" height="15" viewBox="0 0 15 15" fill="none" xmlns="http://www.w3.org/2000/svg">
<path d="M9.32737 2.49111L12.3787 5.54242L4.65493 13.2662L1.60532 10.2149L9.32737 2.49111ZM14.6941 1.7552L13.3333 0.394421C12.8074 -0.131474 11.9535 -0.131474 11.4258 0.394421L10.1223 1.69791L13.1736 4.74925L14.6941 3.2288C15.102 2.82089 15.102 2.16309 14.6941 1.7552ZM0.00849116 14.5037C-0.0470393 14.7537 0.178599 14.9776 0.428543 14.9168L3.82875 14.0924L0.779139 11.0411L0.00849116 14.5037Z" fill="black" fill-opacity="0.72"/>
</svg>
